<?xml version="1.0" encoding="UTF-8" standalone="no"?>
<!DOCTYPE svg PUBLIC "-//W3C//DTD SVG 1.1//EN" "http://www.w3.org/Graphics/SVG/1.1/DTD/svg11.dtd">
<svg width="100%" height="100%" viewBox="0 0 1177 190" version="1.1" xmlns="http://www.w3.org/2000/svg" xmlns:xlink="http://www.w3.org/1999/xlink" xml:space="preserve" xmlns:serif="http://www.serif.com/" style="fill-rule:evenodd;clip-rule:evenodd;stroke-linejoin:round;stroke-miterlimit:2;">
    <g transform="matrix(1,0,0,1,-5051.7,-1781.44)">
        <g transform="matrix(2.34014,0,0,1,4218.67,1372.56)">
            <g transform="matrix(0.784071,0,0,1.83483,211.914,-4483.28)">
                <text x="176.444px" y="2742.83px" style="font-family:'Manrope3-ExtraBold', 'Manrope3';font-weight:800;font-stretch:semi-condensed;font-size:100px;">herwig</text>
                <text x="550.403px" y="2742.83px" style="font-family:'Manrope3-ExtraBold', 'Manrope3';font-weight:800;font-stretch:semi-condensed;font-size:100px;fill:rgb(203,39,39);">e<tspan x="612.173px 678.423px 721.548px " y="2742.83px 2742.83px 2742.83px ">nte</tspan>r</text>
            </g>
        </g>
    </g>
</svg>
