<?xml version="1.0" encoding="UTF-8" standalone="no"?>
<svg
   xmlns:dc="http://purl.org/dc/elements/1.1/"
   xmlns:cc="http://creativecommons.org/ns#"
   xmlns:rdf="http://www.w3.org/1999/02/22-rdf-syntax-ns#"
   xmlns:svg="http://www.w3.org/2000/svg"
   xmlns="http://www.w3.org/2000/svg"
   xmlns:sodipodi="http://sodipodi.sourceforge.net/DTD/sodipodi-0.dtd"
   xmlns:inkscape="http://www.inkscape.org/namespaces/inkscape"
   width="1699"
   height="400"
   viewBox="0 0 1699 400"
   version="1.1"
   xml:space="preserve"
   style="clip-rule:evenodd;fill-rule:evenodd;stroke-linejoin:round;stroke-miterlimit:2"
   id="svg1025"
   sodipodi:docname="logo-and-wordmark-slim.svg"
   inkscape:version="1.0.2 (e86c8708, 2021-01-15)"><metadata
   id="metadata1031"><rdf:RDF><cc:Work
       rdf:about=""><dc:format>image/svg+xml</dc:format><dc:type
         rdf:resource="http://purl.org/dc/dcmitype/StillImage" /><dc:title></dc:title></cc:Work></rdf:RDF></metadata><defs
   id="defs1029" /><sodipodi:namedview
   pagecolor="#ffffff"
   bordercolor="#666666"
   borderopacity="1"
   objecttolerance="10"
   gridtolerance="10"
   guidetolerance="10"
   inkscape:pageopacity="0"
   inkscape:pageshadow="2"
   inkscape:window-width="1600"
   inkscape:window-height="807"
   id="namedview1027"
   showgrid="false"
   inkscape:zoom="0.39317245"
   inkscape:cx="579.8982"
   inkscape:cy="259.73952"
   inkscape:window-x="0"
   inkscape:window-y="23"
   inkscape:window-maximized="1"
   inkscape:current-layer="svg1025"
   inkscape:document-rotation="0" />
    <g
   transform="matrix(0.890884,0,0,0.499014,350.757,-1207.3022)"
   id="g877">
        <g
   transform="matrix(205.957,0,0,367.692,176.444,2947.78)"
   id="g835">
            <path
   d="M 0.539,-0.518 C 0.484,-0.571 0.417,-0.582 0.35,-0.578 0.299,-0.575 0.242,-0.556 0.205,-0.513 0.203,-0.509 0.2,-0.506 0.198,-0.504 V -0.75 H 0.073 V 0 h 0.143 v -0.245 c 0,-0.038 0.001,-0.082 0.006,-0.107 0.006,-0.031 0.021,-0.056 0.042,-0.072 0.018,-0.014 0.04,-0.021 0.066,-0.022 0.039,-0.001 0.069,0.011 0.089,0.032 0.029,0.032 0.037,0.09 0.037,0.148 V 0 H 0.6 v -0.272 c 0,-0.087 0,-0.185 -0.061,-0.246 z"
   style="fill-rule:nonzero"
   id="path833" />
        </g>
        <g
   transform="matrix(205.957,0,0,367.692,312.891,2947.78)"
   id="g839">
            <path
   d="M 0.195,-0.242 H 0.59 c 0.015,-0.196 -0.08,-0.336 -0.264,-0.336 -0.171,0 -0.284,0.122 -0.284,0.304 0,0.168 0.116,0.29 0.292,0.29 0.106,0 0.209,-0.061 0.25,-0.163 L 0.443,-0.188 c -0.022,0.047 -0.065,0.071 -0.117,0.071 -0.076,0 -0.121,-0.047 -0.131,-0.125 z m 0.131,-0.213 c 0.08,0 0.11,0.037 0.12,0.104 H 0.199 C 0.213,-0.414 0.25,-0.455 0.326,-0.455 Z"
   style="fill-rule:nonzero"
   id="path837" />
        </g>
        <g
   transform="matrix(205.957,0,0,367.692,443.33,2947.78)"
   id="g843">
            <path
   d="m 0.258,-0.535 c -0.026,0.016 -0.045,0.037 -0.06,0.063 V -0.563 H 0.073 V 0 h 0.143 v -0.288 c 0,-0.066 0.028,-0.11 0.077,-0.133 0.033,-0.015 0.079,-0.019 0.11,-0.009 V -0.563 C 0.352,-0.569 0.299,-0.56 0.258,-0.535 Z"
   style="fill-rule:nonzero"
   id="path841" />
        </g>
        <g
   transform="matrix(205.957,0,0,367.692,531.72,2947.78)"
   id="g847">
            <path
   d="M 0.689,-0.563 0.586,-0.227 0.483,-0.563 H 0.366 L 0.263,-0.227 0.16,-0.563 0.021,-0.564 0.193,0 H 0.301 L 0.424,-0.367 0.538,0 h 0.117 l 0.172,-0.563 z"
   style="fill-rule:nonzero"
   id="path845" />
        </g>
        <g
   transform="matrix(205.957,0,0,367.692,706.354,2947.78)"
   id="g851">
            <path
   d="m 0.225,-0.766 v 0.125 H 0.083 V -0.766 Z M 0.083,-0.563 H 0.225 V 0 H 0.083 Z"
   style="fill-rule:nonzero"
   id="path849" />
        </g>
        <g
   transform="matrix(205.957,0,0,367.692,769.857,2947.78)"
   id="g855">
            <path
   d="m 0.453,-0.563 v 0.032 c -0.037,-0.03 -0.086,-0.047 -0.145,-0.047 -0.161,0 -0.266,0.125 -0.266,0.297 0,0.168 0.104,0.297 0.259,0.297 0.053,0 0.098,-0.013 0.134,-0.036 V 0.036 C 0.438,0.099 0.378,0.131 0.315,0.131 0.275,0.131 0.239,0.114 0.221,0.08 L 0.09,0.144 c 0.042,0.073 0.128,0.121 0.224,0.121 0.124,0 0.228,-0.047 0.255,-0.15 C 0.575,0.091 0.577,0.067 0.577,0.039 V -0.563 Z M 0.324,-0.11 c -0.092,0 -0.132,-0.076 -0.132,-0.171 0,-0.094 0.042,-0.171 0.137,-0.171 0.089,0 0.124,0.069 0.124,0.171 0,0.102 -0.034,0.171 -0.129,0.171 z"
   style="fill-rule:nonzero"
   id="path853" />
        </g>
        <g
   transform="matrix(205.957,0,0,367.692,946.637,2947.78)"
   id="g859">
            <path
   d="M 0.195,-0.242 H 0.59 c 0.015,-0.196 -0.08,-0.336 -0.264,-0.336 -0.171,0 -0.284,0.122 -0.284,0.304 0,0.168 0.116,0.29 0.292,0.29 0.106,0 0.209,-0.061 0.25,-0.163 L 0.443,-0.188 c -0.022,0.047 -0.065,0.071 -0.117,0.071 -0.076,0 -0.121,-0.047 -0.131,-0.125 z m 0.131,-0.213 c 0.08,0 0.11,0.037 0.12,0.104 H 0.199 C 0.213,-0.414 0.25,-0.455 0.326,-0.455 Z"
   style="fill:#cb2727;fill-rule:nonzero"
   id="path857" />
        </g>
        <g
   transform="matrix(205.957,0,0,367.692,1073.86,2947.78)"
   id="g863">
            <path
   d="M 0.539,-0.518 C 0.484,-0.571 0.417,-0.582 0.35,-0.578 0.299,-0.575 0.242,-0.556 0.205,-0.513 0.203,-0.509 0.2,-0.506 0.198,-0.504 V -0.563 H 0.073 V 0 h 0.143 v -0.245 c 0,-0.038 0.001,-0.082 0.006,-0.107 0.006,-0.031 0.021,-0.056 0.042,-0.072 0.018,-0.014 0.04,-0.021 0.066,-0.022 0.039,-0.001 0.069,0.011 0.089,0.032 0.029,0.032 0.037,0.09 0.037,0.148 V 0 H 0.6 v -0.272 c 0,-0.087 0,-0.185 -0.061,-0.246 z"
   style="fill:#cb2727;fill-rule:nonzero"
   id="path861" />
        </g>
        <g
   transform="matrix(205.957,0,0,367.692,1210.3,2947.78)"
   id="g867">
            <path
   d="M 0.248,-0.453 H 0.41 v -0.11 H 0.248 V -0.719 H 0.106 v 0.156 H 0.01 v 0.11 h 0.096 v 0.214 c 0,0.068 -0.006,0.126 0.025,0.172 0.03,0.045 0.063,0.062 0.115,0.071 C 0.288,0.011 0.367,0.013 0.41,0 V -0.118 C 0.38,-0.114 0.346,-0.111 0.319,-0.114 0.297,-0.116 0.273,-0.124 0.259,-0.146 0.246,-0.167 0.248,-0.203 0.248,-0.247 Z"
   style="fill:#cb2727;fill-rule:nonzero"
   id="path865" />
        </g>
        <g
   transform="matrix(205.957,0,0,367.692,1299.12,2947.78)"
   id="g871">
            <path
   d="M 0.195,-0.242 H 0.59 c 0.015,-0.196 -0.08,-0.336 -0.264,-0.336 -0.171,0 -0.284,0.122 -0.284,0.304 0,0.168 0.116,0.29 0.292,0.29 0.106,0 0.209,-0.061 0.25,-0.163 L 0.443,-0.188 c -0.022,0.047 -0.065,0.071 -0.117,0.071 -0.076,0 -0.121,-0.047 -0.131,-0.125 z m 0.131,-0.213 c 0.08,0 0.11,0.037 0.12,0.104 H 0.199 C 0.213,-0.414 0.25,-0.455 0.326,-0.455 Z"
   style="fill:#cb2727;fill-rule:nonzero"
   id="path869" />
        </g>
        <g
   transform="matrix(205.957,0,0,367.692,1429.56,2947.78)"
   id="g875">
            <path
   d="m 0.258,-0.535 c -0.026,0.016 -0.045,0.037 -0.06,0.063 V -0.563 H 0.073 V 0 h 0.143 v -0.288 c 0,-0.066 0.028,-0.11 0.077,-0.133 0.033,-0.015 0.079,-0.019 0.11,-0.009 V -0.563 C 0.352,-0.569 0.299,-0.56 0.258,-0.535 Z"
   style="fill:#cb2727;fill-rule:nonzero"
   id="path873" />
        </g>
    </g>
    <g
   transform="matrix(2.34014,0,0,1,-222.428,-298.54116)"
   id="g887">
        <g
   transform="matrix(0.667092,0,0,1.56109,-162.501,-280.544)"
   id="g881">
            <path
   d="m 419.115,515.789 c 7.425,40.13 42.642,70.567 84.913,70.567 17.441,0 34.402,-5.279 48.682,-15.062 4.011,-2.752 9.455,-2.008 12.582,1.718 2.567,3.06 5.6,6.673 8.211,9.824 1.694,2.019 2.465,4.656 2.126,7.27 -0.339,2.614 -1.758,4.966 -3.911,6.486 -19.767,13.853 -43.388,21.357 -67.69,21.357 -65.098,0 -117.949,-52.851 -117.949,-117.949 0,-65.098 52.851,-117.949 117.949,-117.949 24.125,0 47.586,7.396 67.285,21.044 2.139,1.496 3.554,3.819 3.903,6.406 0.348,2.587 -0.402,5.201 -2.069,7.209 -2.653,3.197 -5.728,6.903 -8.337,10.006 -3.064,3.691 -8.431,4.451 -12.399,1.755 -14.231,-9.627 -31.073,-14.827 -48.383,-14.827 -42.271,0 -77.488,30.437 -84.913,70.567 h 99.362 l 0.102,10e-4 c 0.859,0.016 1.709,0.16 2.52,0.446 2.297,0.81 4.135,2.692 4.888,5.009 0.255,0.786 0.384,1.612 0.384,2.439 10e-4,5.263 10e-4,10.525 0,15.788 0,0.827 -0.129,1.653 -0.384,2.439 -0.722,2.222 -2.444,4.05 -4.617,4.908 -0.922,0.364 -1.903,0.541 -2.893,0.548 z"
   style="fill:#cb2727"
   id="path879" />
        </g>
        <g
   transform="matrix(0.667092,0,0,1.56109,-162.501,-280.544)"
   id="g885">
            <path
   d="m 537.367,442.347 c 0.892,0.017 1.774,0.172 2.612,0.479 2.193,0.804 3.958,2.59 4.734,4.793 0.297,0.843 0.441,1.729 0.447,2.622 v 33.97 h 37.023 v -33.97 c 0.006,-0.893 0.15,-1.779 0.447,-2.622 0.777,-2.203 2.541,-3.989 4.734,-4.793 0.838,-0.307 1.72,-0.462 2.612,-0.479 h 15.992 c 0.892,0.017 1.773,0.172 2.611,0.479 2.194,0.804 3.958,2.59 4.735,4.793 0.297,0.843 0.441,1.729 0.447,2.622 v 33.97 h 0.16 v 31.578 h -0.16 v 33.97 c -0.006,0.861 -0.139,1.715 -0.415,2.531 -0.793,2.338 -2.693,4.216 -5.041,4.979 -0.786,0.255 -1.612,0.384 -2.439,0.384 -5.263,10e-4 -10.526,10e-4 -15.788,0 -0.827,0 -1.653,-0.129 -2.439,-0.384 -2.222,-0.722 -4.05,-2.443 -4.908,-4.616 -0.364,-0.923 -0.541,-1.903 -0.548,-2.894 v -33.97 H 545.16 v 33.97 c 0,4.357 -3.537,7.894 -7.894,7.894 h -15.789 c -4.357,0 -7.894,-3.537 -7.894,-7.894 v -99.518 c 0,-4.357 3.537,-7.894 7.894,-7.894 z"
   id="path883" />
        </g>
    </g>
    
    
</svg>
